…
``` r
#  ) %>% kable_styling(latex_options = "striped", full_width = FALSE)

#kable(
  ninja %>% 
    filter(round_stage == "Qualifying (Regional/City)") %>%
    group_by(location, round_stage) %>% 
    summarize(min = min(obstacle_order), max = max(obstacle_order)) %>%
    mutate(obstacle_count = paste(min, " to ", max, sep=""))
```

    ## # A tibble: 26 x 5
    ## # Groups:   location [26]
    ##    location      round_stage                  min   max obstacle_count
    ##    <chr>         <chr>                      <dbl> <dbl> <chr>         
    ##  1 Atlanta       Qualifying (Regional/City)     1     6 1 to 6        
    ##  2 Baltimore     Qualifying (Regional/City)     1     6 1 to 6        
    ##  3 Cleveland     Qualifying (Regional/City)     1     6 1 to 6        
    ##  4 Dallas        Qualifying (Regional/City)     1     6 1 to 6        
    ##  5 Daytona Beach Qualifying (Regional/City)     1     6 1 to 6        
    ##  6 Denver        Qualifying (Regional/City)     1     6 1 to 6        
    ##  7 Houston       Qualifying (Regional/City)     1     6 1 to 6        
    ##  8 Indianapolis  Qualifying (Regional/City)     1     6 1 to 6        
    ##  9 Kansas City   Qualifying (Regional/City)     1     6 1 to 6        
    ## 10 Los Angeles   Qualifying (Regional/City)     1     6 1 to 6        
    ## # ... with 16 more rows
…
}  

tbl <- oseq %>% group_by(Sequence) %>%
  summarize(count = n(), id=max(id), seqLength = max(seqLength)) %>%
  arrange(desc(count)) # %>% slice_head(n=33)

tbl$Sequence <- factor(tbl$Sequence, levels = tbl$Sequence[order(tbl$count)])

#kable(
tbl %>% slice_head(n=26)#) %>%
```

    ## # A tibble: 26 x 4
    ##    Sequence                                    count    id seqLength
    ##    <fct>                                       <int> <dbl>     <dbl>
    ##  1 Warped Wall:Salmon Ladder                      40   862         2
    ##  2 Quad Steps:Log Grip                            14   202         2
    ##  3 Bridge of Blades:Jump Hang                      6   188         2
    ##  4 Devil Steps:Warped Wall                         6   438         2
    ##  5 Double Salmon Ladder:Unstable Bridge            6   534         2
    ##  6 Half-Pipe Attack:Warped Wall                    6   408         2
    ##  7 Jumping Spider:Half-Pipe Attack                 6   407         2
    ##  8 Jumping Spider:Half-Pipe Attack:Warped Wall     6   408         3
    ##  9 Log Grip:Bridge of Blades                       6   187         2
    ## 10 Log Grip:Bridge of Blades:Jump Hang             6   188         3
    ## # ... with 16 more rows
…
FtoL$obstacle_name <- as.factor(FtoL$obstacle_name)

FtoL$obstacle_name <- factor(FtoL$obstacle_name, levels = FtoL$obstacle_name[order(FtoL$count)])

FtoL
```

    ## # A tibble: 40 x 3
    ## # Groups:   obstacle_name [40]
    ##    obstacle_name     pos   count
    ##    <fct>             <chr> <int>
    ##  1 Quintuple Steps   First    32
    ##  2 Floating Steps    First    28
    ##  3 Quad Steps        First    16
    ##  4 Rope Climb        First     9
    ##  5 Archer Steps      First     6
    ##  6 Roulette Cylinder First     3
    ##  7 Slider Drop       First     3
    ##  8 Step Slider       First     3
    ##  9 Floating Boards   First     2
    ## 10 Giant Ring Swing  First     2
    ## # ... with 30 more rows
…
