Ninja Warrior Obstacles
…
FtoL <- ninja %>% 
  filter(pos=="Last" | obstacle_order==1) %>% 
  replace_na(list(pos = "First")) %>%
  group_by(obstacle_name, pos) %>%
  summarize(count = n()) %>%
  arrange(pos, desc(count))

FtoL$obstacle_name <- as.factor(FtoL$obstacle_name)

FtoL$obstacle_name <- factor(FtoL$obstacle_name, levels = FtoL$obstacle_name[order(FtoL$count)])

FtoL

## # A tibble: 40 x 3
## # Groups:   obstacle_name [40]
##    obstacle_name     pos   count
##    <fct>             <chr> <int>
##  1 Quintuple Steps   First    32
##  2 Floating Steps    First    28
##  3 Quad Steps        First    16
##  4 Rope Climb        First     9
##  5 Archer Steps      First     6
##  6 Roulette Cylinder First     3
##  7 Slider Drop       First     3
##  8 Step Slider       First     3
##  9 Floating Boards   First     2
## 10 Giant Ring Swing  First     2
## # ... with 30 more rows
…
