…
### Fit model on test data

Fit the workflow to the training data. With this fit model, you can do a
lot of things, like predict based on the training data

    ## # A tibble: 3,571 x 1
    ##    .pred_class
    ##    <fct>      
    ##  1 no bird    
    ##  2 no bird    
    ##  3 no bird    
    ##  4 no bird    
    ##  5 no bird    
    ##  6 no bird    
    ##  7 no bird    
    ##  8 no bird    
    ##  9 no bird    
    ## 10 no bird    
    ## # ... with 3,561 more rows

Create new bird data to predict.

You can use the augment() function again to put the model predictions
back into the new bird data.

augment() and predict() are great functions to use and know about

The chart below adds the confidence intervals along with the
predictions.

    ## # A tibble: 30 x 5
    ##    bird_type         urban_rural .pred_class .pred_bird `.pred_no bird`
    ##    <chr>             <chr>       <fct>            <dbl>           <dbl>
    ##  1 Australian Magpie Rural       no bird         0.245            0.755
    ##  2 Australian Magpie Urban       no bird         0.287            0.713
    ##  3 Crested Pigeon    Rural       no bird         0.0826           0.917
    ##  4 Crested Pigeon    Urban       no bird         0.141            0.859
    ##  5 Crimson Rosella   Rural       no bird         0.215            0.785
    ##  6 Crimson Rosella   Urban       no bird         0.123            0.877
    ##  7 Eastern Spinebill Rural       no bird         0.283            0.717
    ##  8 Eastern Spinebill Urban       no bird         0.0973           0.903
    ##  9 Grey Fantail      Rural       no bird         0.254            0.746
    ## 10 Grey Fantail      Urban       no bird         0.0614           0.939
    ## # ... with 20 more rows

    ## # A tibble: 30 x 4
    ##    .pred_lower_bird .pred_upper_bird `.pred_lower_no bird` `.pred_upper_no bird`
    ##               <dbl>            <dbl>                 <dbl>                 <dbl>
    ##  1           0.193            0.307                  0.693                 0.807
    ##  2           0.249            0.329                  0.671                 0.751
    ##  3           0.0526           0.127                  0.873                 0.947
    ##  4           0.113            0.174                  0.826                 0.887
    ##  5           0.166            0.274                  0.726                 0.834
    ##  6           0.0969           0.155                  0.845                 0.903
    ##  7           0.227            0.346                  0.654                 0.773
    ##  8           0.0736           0.127                  0.873                 0.926
    ##  9           0.200            0.316                  0.684                 0.800
    ## 10           0.0435           0.0860                 0.914                 0.957
    ## # ... with 20 more rows
…
