…
Then use bootstraps to create 25 subsets on the training data

``` r
set.seed(123)
ikea_split <- initial_split(ikea_df, strata = price)
ikea_train <- training(ikea_split)
ikea_test <- testing(ikea_split)

set.seed(234)
ikea_folds <- bootstraps(ikea_train, strata = price)
ikea_folds
```

    ## # Bootstrap sampling using stratification 
    ## # A tibble: 25 x 2
    ##    splits             id         
    ##    <list>             <chr>      
    ##  1 <split [2.8K/998]> Bootstrap01
    ##  2 <split [2.8K/1K]>  Bootstrap02
    ##  3 <split [2.8K/1K]>  Bootstrap03
    ##  4 <split [2.8K/1K]>  Bootstrap04
    ##  5 <split [2.8K/1K]>  Bootstrap05
    ##  6 <split [2.8K/1K]>  Bootstrap06
    ##  7 <split [2.8K/1K]>  Bootstrap07
    ##  8 <split [2.8K/1K]>  Bootstrap08
    ##  9 <split [2.8K/1K]>  Bootstrap09
    ## 10 <split [2.8K/1K]>  Bootstrap10
    ## # ... with 15 more rows
…
