…
``` r
tree_grid <- grid_regular(cost_complexity(), tree_depth(), min_n(), levels=4)

tree_grid
```

    ## # A tibble: 64 x 3
    ##    cost_complexity tree_depth min_n
    ##              <dbl>      <int> <int>
    ##  1    0.0000000001          1     2
    ##  2    0.0000001             1     2
    ##  3    0.0001                1     2
    ##  4    0.1                   1     2
    ##  5    0.0000000001          5     2
    ##  6    0.0000001             5     2
    ##  7    0.0001                5     2
    ##  8    0.1                   5     2
    ##  9    0.0000000001         10     2
    ## 10    0.0000001            10     2
    ## # ... with 54 more rows
…
Exploring model results,

``` r
# Tabular list of measure results...
collect_metrics(tree_rs)
```

    ## # A tibble: 256 x 9
    ##    cost_complexity tree_depth min_n .metric .estimator    mean     n std_err
    ##              <dbl>      <int> <int> <chr>   <chr>        <dbl> <int>   <dbl>
    ##  1    0.0000000001          1     2 mae     standard   386.       10  1.50  
    ##  2    0.0000000001          1     2 mape    standard    27.7      10  1.30  
    ##  3    0.0000000001          1     2 rmse    standard   508.       10  1.44  
    ##  4    0.0000000001          1     2 rsq     standard     0.303    10  0.0134
    ##  5    0.0000001             1     2 mae     standard   386.       10  1.50  
    ##  6    0.0000001             1     2 mape    standard    27.7      10  1.30  
    ##  7    0.0000001             1     2 rmse    standard   508.       10  1.44  
    ##  8    0.0000001             1     2 rsq     standard     0.303    10  0.0134
    ##  9    0.0001                1     2 mae     standard   386.       10  1.50  
    ## 10    0.0001                1     2 mape    standard    27.7      10  1.30  
    ## # ... with 246 more rows, and 1 more variable: .config <chr>
…
collect_metrics(final_rs)
```

    ## # A tibble: 2 x 4
    ##   .metric .estimator .estimate .config             
    ##   <chr>   <chr>          <dbl> <chr>               
    ## 1 rmse    standard      73.6   Preprocessor1_Model1
    ## 2 rsq     standard       0.985 Preprocessor1_Model1

``` r
# The predicted and true capacity... 
collect_predictions(final_rs)
```

    ## # A tibble: 1,618 x 5
    ##    id               .pred  .row turbine_capacity .config             
    ##    <chr>            <dbl> <int>            <dbl> <chr>               
    ##  1 train/test split  1300     8             1300 Preprocessor1_Model1
    ##  2 train/test split  1300    10             1300 Preprocessor1_Model1
    ##  3 train/test split  1300    11             1300 Preprocessor1_Model1
    ##  4 train/test split  1300    13             1300 Preprocessor1_Model1
    ##  5 train/test split  1300    16             1300 Preprocessor1_Model1
    ##  6 train/test split  1300    19             1300 Preprocessor1_Model1
    ##  7 train/test split  1300    24             1300 Preprocessor1_Model1
    ##  8 train/test split  1300    26             1300 Preprocessor1_Model1
    ##  9 train/test split   660    32              660 Preprocessor1_Model1
    ## 10 train/test split   660    35              660 Preprocessor1_Model1
    ## # ... with 1,608 more rows
…
