…
Will simplify the classifications to show broader beer types and reduce
the numver of different categories down to 23 (excluding ‘Other’)

    ## # A tibble: 25 x 2
    ##    SimpleCat        n
    ##    <chr>        <int>
    ##  1 Lager          554
    ##  2 Pale Ale       420
    ##  3 Stout          388
    ##  4 German Style   387
    ##  5 Belgian Beer   372
    ##  6 Pilsener       213
    ##  7 Wheat Beer     191
    ##  8 Porter         167
    ##  9 Fruit Beer     162
    ## 10 Red Ale        157
    ## # ... with 15 more rows
…
