BabyNames
…
Names & Gender Walk

Checking out different names

## # A tibble: 1,027,678 x 9
##     year name         F     M    FM    PF `Gender Neutral` `Predominately Male`
##    <dbl> <chr>    <dbl> <dbl> <dbl> <dbl>            <dbl>                <dbl>
##  1  1977 Jennifer 58964   179 59143 0.997                0                    0
##  2  1977 Melissa  26885    92 26977 0.997                0                    0
##  3  1977 Amy      26731    74 26805 0.997                0                    0
##  4  1977 Jessica  24843    91 24934 0.996                0                    0
##  5  1977 Heather  23777    75 23852 0.997                0                    0
##  6  1977 Angela   20997    74 21071 0.996                0                    0
##  7  1977 Michelle 19538    82 19620 0.996                0                    0
##  8  1977 Kimberly 18285    81 18366 0.996                0                    0
##  9  1977 Amanda   18279    62 18341 0.997                0                    0
## 10  1977 Kelly    18235  1484 19719 0.925                0                    0
## # ... with 1,027,668 more rows, and 1 more variable:
## #   `Predominately Female` <dbl>
…
## # A tibble: 6,550 x 6
##    name       FM Gender birth_count Percent     mid
##    <chr>   <dbl> <chr>        <dbl>   <dbl>   <dbl>
##  1 Aalijah   154 F              -74   0.481 -0.0195
##  2 Aalijah   154 M               80   0.519  0.0195
##  3 Aaliyan    11 F               -6   0.545  0.0455
##  4 Aaliyan    11 M                5   0.455 -0.0455
##  5 Aamari    103 F              -50   0.485 -0.0146
##  6 Aamari    103 M               53   0.515  0.0146
##  7 Aaren     230 F             -118   0.513  0.0130
##  8 Aaren     230 M              112   0.487 -0.0130
##  9 Aarian     13 F               -6   0.462 -0.0385
## 10 Aarian     13 M                7   0.538  0.0385
## # ... with 6,540 more rows
…
